…
Fixing dates and times

The next step is to convert the date and time variable, which currently is stored as a character. I’ll use lubridate to fix this. I’m also specifying the time zone and adding an dayofweek and a weekend/weekday indicator variable, which will come in handy later.

counts2 <- counts %>% 
  drop_na %>%
  mutate(Count = as.integer(Count), location = as.factor(location)) %>%
  mutate(Count_Date = mdy_hm(Count_Date, tz = "US/Central")) %>% #specifying the time zone will help when merging climate data later
  mutate(dayofweek = wday(Count_Date, label = TRUE)) %>% #turning on labels makes this more intuitive
  mutate(weekendind = ifelse(dayofweek %in% c("Sat", "Sun"), "weekend", "weekday"))

counts2

## # A tibble: 79,347 x 5
##    Count_Date          Count location                dayofweek weekendind
##    <dttm>              <int> <fct>                   <ord>     <chr>     
##  1 2015-06-23 11:00:00    92 Cap City at North Shore Tue       weekday   
##  2 2015-06-23 12:00:00   191 Cap City at North Shore Tue       weekday   
##  3 2015-06-23 13:00:00   156 Cap City at North Shore Tue       weekday   
##  4 2015-06-23 14:00:00   155 Cap City at North Shore Tue       weekday   
##  5 2015-06-23 15:00:00   243 Cap City at North Shore Tue       weekday   
##  6 2015-06-23 16:00:00   353 Cap City at North Shore Tue       weekday   
##  7 2015-06-23 17:00:00   422 Cap City at North Shore Tue       weekday   
##  8 2015-06-23 18:00:00   361 Cap City at North Shore Tue       weekday   
##  9 2015-06-23 19:00:00   326 Cap City at North Shore Tue       weekday   
## 10 2015-06-23 20:00:00   173 Cap City at North Shore Tue       weekday   
## # ... with 79,337 more rows
…
Nope, the Cap City counter looks like any regular day. I’m ready to call these outliers. But there’s one more test:

Instead of using a hard cap with thresholds determined by long-term expected counts, the NITC report discusses a method based on a moving 27-day average and interquartile ranges (p. 41-42). A fixed threshold doesn’t account for seasonal variation – a 500 cylists/hour count in July may be plausible; in January it would be an obvious outlier. Looking at the distribution of the data only in the previous 27 days fixes this issue. I’ll only do this calculation for the July 2 and 3 counts.

counts2 %>%
  filter(location == "SW Path at Randall" & Count_Date >= ymd("2018-07-02") - days(27) & Count_Date <= ymd("2018-07-02")) %>% 
  group_by(hour(Count_Date)) %>% 
  summarize(hourly_IQR = IQR(Count),
            q3 = quantile(Count, 3/4),
            q1 = quantile(Count, 1/4)) %>% 
  mutate(upper_thresh = q3 + 2* hourly_IQR, #establishing the upper threshold
         lower_thresh = q1 - 2* hourly_IQR) #and the lower threshold (which can be negative)

## # A tibble: 24 x 6
##    `hour(Count_Date)` hourly_IQR    q3    q1 upper_thresh lower_thresh
##                 <int>      <dbl> <dbl> <dbl>        <dbl>        <dbl>
##  1                  0        5.5   6.5     1         17.5          -10
##  2                  1        2     2       0          6             -4
##  3                  2        1.5   1.5     0          4.5           -3
##  4                  3        1     1       0          3             -2
##  5                  4        1     1       0          3             -2
##  6                  5       14    17       3         45            -25
##  7                  6       27.5  45.5    18        100.           -37
##  8                  7       61.5 104.     43        228.           -80
##  9                  8       65.5 128.     63        260.           -68
## 10                  9       53.5  97.5    44        204.           -63
## # ... with 14 more rows
…
## # A tibble: 2 x 2
##   rlength values
##     <int>  <int>
## 1       3    129
## 2       5      7

Aha, one additional possibly suspicious point. So our run analysis has only identified one run as “suspicious” and two more as “possibly suspicious”! A 525-hour period of 0 counts, three counsecutive hours of repeated counts of 129; and 5 hours with counts of 7. Because there doesn’t seem to be a good way to further investigate and they’re only “possibly suspicious,” I’ll leave the latter two runs alone. The long run of zero counts, however, needs to be dealt with.

Moving back from the dupes2 tibble to the counts is not straightforward, as they have different lengths. I can’t currently think of a generalizable way to do this. But as I’m only doing with one run, a less elegant way will do. Remember that we’re trying to find the time 525-hour time period where counts were zero. The lead function will let us do this:

counts2 %>% 
  filter(Count == 0 & 
           lead(Count, n = 25L) == 0)

## # A tibble: 2,767 x 5
##    Count_Date          Count location                dayofweek weekendind
##    <dttm>              <int> <fct>                   <ord>     <chr>     
##  1 2015-08-22 03:00:00     0 Cap City at North Shore Sat       weekend   
##  2 2015-10-17 04:00:00     0 Cap City at North Shore Sat       weekend   
##  3 2015-10-23 03:00:00     0 Cap City at North Shore Fri       weekday   
##  4 2015-10-24 04:00:00     0 Cap City at North Shore Sat       weekend   
##  5 2015-10-29 03:00:00     0 Cap City at North Shore Thu       weekday   
##  6 2015-10-30 03:00:00     0 Cap City at North Shore Fri       weekday   
##  7 2015-10-31 03:00:00     0 Cap City at North Shore Sat       weekend   
##  8 2015-11-04 03:00:00     0 Cap City at North Shore Wed       weekday   
##  9 2015-11-05 03:00:00     0 Cap City at North Shore Thu       weekday   
## 10 2015-11-11 03:00:00     0 Cap City at North Shore Wed       weekday   
## # ... with 2,757 more rows

So we’re filtering for values where the Count is 0 and the count 25 hours later is also 0. As we can see from the numbers of results, this isn’t specific enough yet. This makes sense, as it’s common to have, say, a 2am zero count followed by a 3am zero count the next day. So we need to add a condition:

counts2 %>% 
  filter(Count == 0 & 
           lead(Count, n = 25L) == 0 &
           lead(Count, n = 12L) == 0)

## # A tibble: 528 x 5
##    Count_Date          Count location                dayofweek weekendind
##    <dttm>              <int> <fct>                   <ord>     <chr>     
##  1 2016-12-25 04:00:00     0 Cap City at North Shore Sun       weekend   
##  2 2017-12-24 19:00:00     0 Cap City at North Shore Sun       weekend   
##  3 2017-12-25 01:00:00     0 Cap City at North Shore Mon       weekday   
##  4 2019-01-29 23:00:00     0 Cap City at North Shore Tue       weekday   
##  5 2019-02-18 03:00:00     0 Cap City at North Shore Mon       weekday   
##  6 2019-02-18 15:00:00     0 Cap City at North Shore Mon       weekday   
##  7 2019-02-18 16:00:00     0 Cap City at North Shore Mon       weekday   
##  8 2019-02-18 17:00:00     0 Cap City at North Shore Mon       weekday   
##  9 2019-02-18 18:00:00     0 Cap City at North Shore Mon       weekday   
## 10 2019-02-18 19:00:00     0 Cap City at North Shore Mon       weekday   
## # ... with 518 more rows
…
7 suspiciously high values at the SW Path Counter

525 zero counts because of a malfunction of the Cap City counter

So out of the 79355 total observations, 540 or 0.68% had quality issues. This is pretty good, but it does leave the question on how to handle these. Removing them is the easy solution. Because the percentage of missing values that would result from that is very low, this shouldn’t cause issues with analyses such a regression models, and I can always revisit this at later point.

Let’s create a final dataset that removes all these observations. Note that for filtering by date/time you have to specify the time zone! Otherwise R uses the UTC time zone that the data frame is in, as specified above. Also note that tidyverse’s filter returns values where the condition is TRUE. This makes it necessary to use De Morgan’s Laws to invert the conditions.

counts3 <- counts2 %>% 
  filter(location == "SW Path at Randall" | location == "Cap City at North Shore" & (Count_Date <= ymd_hms("2019-02-01 03:00:00", tz = "US/Central") | Count_Date >= ymd_hms("2019-03-12 00:00:00", tz = "US/Central"))) %>%  #remove long zero-count run
  filter(location != "SW Path at Randall" | Count < 500) #remove SW counts over 500
counts3

## # A tibble: 78,408 x 5
##    Count_Date          Count location                dayofweek weekendind
##    <dttm>              <int> <fct>                   <ord>     <chr>     
##  1 2015-06-23 11:00:00    92 Cap City at North Shore Tue       weekday   
##  2 2015-06-23 12:00:00   191 Cap City at North Shore Tue       weekday   
##  3 2015-06-23 13:00:00   156 Cap City at North Shore Tue       weekday   
##  4 2015-06-23 14:00:00   155 Cap City at North Shore Tue       weekday   
##  5 2015-06-23 15:00:00   243 Cap City at North Shore Tue       weekday   
##  6 2015-06-23 16:00:00   353 Cap City at North Shore Tue       weekday   
##  7 2015-06-23 17:00:00   422 Cap City at North Shore Tue       weekday   
##  8 2015-06-23 18:00:00   361 Cap City at North Shore Tue       weekday   
##  9 2015-06-23 19:00:00   326 Cap City at North Shore Tue       weekday   
## 10 2015-06-23 20:00:00   173 Cap City at North Shore Tue       weekday   
## # ... with 78,398 more rows
…
